{
   "intents": [
      {
         "tag": "greeting",
         "patterns": [
            "สวัสดีครับ",
            "สวัสดีค่ะ",
            "ดีครับ",
            "ดีค่ะ",
            "สวัสดี",
            "แจ้งปัญหา"
         ],
         "responses": [
            "สวัสดี ยินดีให้บริการแจ้งปัญหาเมือง!",
            "สวัสดี!! ท่านผู้ใช้งานต้องการแจ้งปัญหาเมืองในส่วนไหนครับ"
         ],
         "context_set": ""
      },
      {
         "tag": "flood problem",
         "patterns": [
            "น้ำท่วมหมู่บ้าน",
            "แจ้งปัญหาน้ำท่วม",
            "เกิดน้ำท่วม",
            "น้ำขัง",
            "น้ำขังในซอย",
            "น้ำท่วม",
            "ท่วม",
            "อุทกภัย",
            "น้ำระบายไม่ทัน",
            "น้ำท่วมสูง",
            "น้ำล้นตลิ่ง",
            "น้ำท่วม",
            "การไหลบ่า",
            "อุทกภัย", 
            "น้ำท่วมหนัก",
            "น้ำท่วมฉับพลัน",
            "น้ำท่วมอย่างหนัก",
            "น้ำท่วมอย่างรุนแรง",
            "น้ำท่วมครั้งใหญ่",
            "ความเสียหายจากน้ำท่วม",
            "เอ่อล้นออกมา",
            "เส้นทางน้ำ",
            "กระแสน้ำ",
            "กระแสน้ำเชี่ยว",
            "ตามกระแสน้ำ",
            "จมอยู่ใต้น้ำ",
            "ลุยน้ำ",
            "ลอยตามน้ำ",
            "ลึกเท่าเข่า",
            "ลึกถึงเอว",
            "การชลประทาน",
            "ระดับน้ำทะเล",
            "สิ่งกีดขวาง", 
            "สิ่งที่ใช้กั้นน้ำ",
            "กระสอบทราย",
            "เขื่อนกั้นน้ำ",
            "เขื่อน", 
            "มูลดิน", 
            "ทำนบ",
             "ตลิ่ง",
            "กำแพงกั้นน้ำ",
            "ปล่อยออก, ระบายออก",
            "กำแพงกลั้นน้ำพัง"
         ],
         "responses": [
            "ส่งรูปน้ำท่วมมาหน่อยครับ"
         ],
         "context_set": ""
      },
      {
         "tag": "road problem",
         "patterns": [
            "ถนนเป็นคลุมเป็ยบ่อ",
            "ถนนพัง",
            "ไม่สามารถใช้งานถนนเส้นนี้",
            "ถนนขาด",
            "ถนนลูกรัง",
            "ถนนดาวอังคาร",
            "ถนน",
            "แจ้งปัญหาถนน",
            "แจ้งปัญหาถนน"
         ],
         "responses": [
            "ส่งรูปถนนบริเวณนั้นมาหน่อย",
            "ถ่ายภาพถนนบริเวณรอบๆ มาได้ไหมครับ"
         ],
         "context_set": ""
      },
      {
         "tag": "electrical problem",
         "patterns": [
            "ไฟทางไม่สว่าง",
            "ไฟไม่ติด",
            "ไฟติดๆดับๆ",
            "เสาไฟฟ้าหัก",
            "ไฟฟ้า",
            "ไฟทางเสีย",
            "ซ้อมไฟถนน",
            "ไฟฟ้าลัดวงจร",
            "แจ้งปัญหาไฟฟ้า"
         ],
         "responses": [
            "ส่งรูปปัญหาไฟบริเวณนั้นมาหน่อย",
            "ส่งภาพปัญหาไฟแถวนั้นมาหน่อย"
         ],
         "context_set": ""
      },
      {
         "tag": "garbage problem",
         "patterns": [
            "ขยะเยอะ",
            "ขยะเต็มพื้น",
            "ขยะทิ้งไม่เป็นที่",
            "ขยะมาก",
            "ตรงนี้มีขยะ",
            "ขยะ",
            "มีคนมาแอบทิ้งขยะ",
            "ขยะเก็บไม่เป็นที่เป็นทาง",
            "ขยะ",
            "ขยะล้นทางแล้ว",
            "แจ้งปัญหาขยะ"
         ],
         "responses": [
            "ส่งรูปขยะบริเวณนั้นมาหน่อย",
            "ถ่ายรูปขยะแถวๆนั้นมาได้ไหมครับ"
         ],
         "context_set": ""
      },
      {
         "tag": "unknow",
         "patterns": [
            ""
         ],
         "responses": [
            "ผมไม่เข้าใจข้อความที่ท่านส่งมา กรุณาส่งข้อความใหม่อีกครั้ง!"
         ],
         "context_set": ""
      },
      {
         "tag": "no_picture",
         "patterns": [
            "ไม่มีภาพ",
            "กล้องถ่ายภาพไม่ได้",
            "ไม่สามารถส่งรูปภาพได้",
            "ไม่มีกล้อง",
            "ไม่มีรูปภาพ"

         ],
         "responses": [
            "รบกวนส่งภาพมาหน่อยครับ",
            "ส่งภาพมาได้ไหมครับ",
            "ขอภาพประกอบหนห่อยครับ"
         ],
         "context_set": ""
      
     },
     {
        "tag": "PM2.5",
        "patterns": [
           "วันนี้ฝุ่นเยอะไหม",
           "ค่าPM2.5",
           "ค่าฝุ่นละออง",
           "PM 2.5",
           "คุณภาพอากาศ",
           "อากาศวันนี้เป็นอย่างไร"
           

        ],
        "responses": [
           "ขอตำแหน่งบริเวณที่ท่านอยู่ตอนนี้หน่อยครับ",
           "ส่งตำแหน่งมาหน่อยครับ",
           "แชร์ตำแหน่งคุณมาหน่อย"
        ],
        "context_set": ""
     }
   ]
}